1 10 20
100 200 125
201 210 89
1 1 1
99 98 26
100 1 119
10000 45 262
114514 1551 354
100000 1 351
999999 99 525
123435 1234 354
258395 243 443
123414 898973 525
35938 23 324
984724 99 525
7363 291834 443
23 787282 509
34 88392 351
11 123 119
23 1 21
93849 123134 354
293819 2 443
99238 1 351
23482 99 279
98374 12 351
394847 21 443
9481 9866 211
2837 81 209
12 14 18
2357 23492 279
13495 10000 276
999 212 179
2348 12 183
228471 34925 386
1238 234912 443
23912 293 282
230818 21 443
3984 212 238
938 192384 383
9485 29 262
23913 23945 176
12395 293 268
231 29134 308
2391 123 183
23 234 128
2395 21 183
239 21 128
359 43 144
3925 67 238
39 34963 311
3459 393 217
248 21 128
23958 23987 220
23 2395 183
98 98 26
3948 2945 238
23958 29 282
239 29 128
25958 3 282
4930 6100 236
395 11 144
2395 23 183
58 11 113
2350 30 183
495 1 144
39568 3 324
359 1 144
6849 39 262
4958 113 238
693 123 145
983 29 179
2350 90 183
200 100 125
678 312 145
900 593 179
2945 123 217
305930 21 443
59029 21234 340
59291 235 340
395 212 144
853901 800000 525
30453 21 308
99 999 179
83475 2331 351
98471 230 351
23104 3810 279
421 1212 182
9583 292 262
239501 298123 407
12304 12 268
5305 22 238
9559 9000 260
8375 2494 262
23 21 16
11 9348 262
239 232 128
2123 139 182
231 239 128
2391 584 183
6995 488 262
4969 9999 262
3493 3492 150
9923 99888 351
23913 43 282
12394 2391 268
5324 34591 311
123495 2193 354
