.............
----------------------------------------------------------------------
Ran 13 tests in 1.008s

OK
Name             Stmts   Miss Branch BrPart  Cover   Missing
------------------------------------------------------------
Collatz.py          21      0      8      0   100%
TestCollatz.py      60      0      0      0   100%
------------------------------------------------------------
TOTAL               81      0      8      0   100%
