1 10 20
100 200 125
201 210 89
900 1000 174
21 30 112
30 41 110
41 50 110
51 60 113
61 70 108
71 80 116
81 90 111
91 100 119
101 110 114
111 120 70
121 130 122
131 140 91
141 140 16
151 160 86
161 170 112
171 180 125
181 190 107
191 200 120
211 220 115
221 230 115
231 240 128
241 250 110
251 260 123
261 270 123
265 276 123
271 280 92
281 290 118
291 300 118
301 310 87
311 320 131
321 330 144
331 340 113
341 350 126
351 360 126
361 370 95
371 380 108
381 390 121
391 400 121
401 410 41
411 420 134
421 430 103
431 440 116
441 450 116
451 460 129
461 470 129
471 480 129
481 490 142
491 500 142
501 510 111
505 506 111
505 505 62
511 520 124
521 530 124
531 540 124
541 550 137
551 560 137
561 570 106
576 583 119
571 580 119
581 590 119
591 600 119
601 610 132
611 620 132
621 630 132
631 640 132
641 650 145
651 660 145
661 670 145
671 680 114
681 690 127
691 700 127
701 710 171
711 720 65
721 730 96
730 721 96
731 740 140
741 750 96
1011 1020 156
1021 1011 156
2201 2210 170
3000 3010 155
1001 2010 182
911 930 130
988 988 50
830 750 153
771 780 153
781 790 122
781 800 122
801 810 73
811 820 135
911 920 130
921 930 130
950 1011 143
1021 1030 125
7031 7040 151
8010 9000 247

